{
	"color": 0xCFB63E,
	"addItems": [ "all" ],
	"addBlocks": [ "all", "!ore" ],
	"alloy": {
		"inputs": [ "zinc", "copper", "copper", "copper" ],
		"output": 4
	},
    "langs": {
        "material": {
            "en": "Brass",
            "ru": "латуни",
            "de": "Messing"
        }
    }
}