{
	"color": 0xC6C6C6,
	"addItems": [ "all" ],
	"addBlocks": [ "all", "!ore" ],
	"alloy": {
		"inputs": [ "iron", "coal" ],
		"output": 1
	},
    "langs": {
        "material": {
            "en": "Steel",
            "ru": "стали",
            "de": "Stahl"
        }
    }
}